<?xml version="1.0" encoding="UTF-8" standalone="no"?>
<!-- Created with Inkscape (http://www.inkscape.org/) -->

<svg
   width="478.94336"
   height="204.48384"
   id="svg2943"
   version="1.1"
   inkscape:version="1.3 (0e150ed6c4, 2023-07-21)"
   sodipodi:docname="trasno.svg"
   xmlns:inkscape="http://www.inkscape.org/namespaces/inkscape"
   xmlns:sodipodi="http://sodipodi.sourceforge.net/DTD/sodipodi-0.dtd"
   xmlns="http://www.w3.org/2000/svg"
   xmlns:svg="http://www.w3.org/2000/svg"
   xmlns:rdf="http://www.w3.org/1999/02/22-rdf-syntax-ns#"
   xmlns:cc="http://creativecommons.org/ns#"
   xmlns:dc="http://purl.org/dc/elements/1.1/">
  <defs
     id="defs2945">
    <inkscape:perspective
       sodipodi:type="inkscape:persp3d"
       inkscape:vp_x="0 : 230.30495 : 1"
       inkscape:vp_y="0 : 1000 : 0"
       inkscape:vp_z="744.09448 : 230.30495 : 1"
       inkscape:persp3d-origin="372.04724 : 54.911246 : 1"
       id="perspective2951" />
    <inkscape:perspective
       id="perspective2917"
       inkscape:persp3d-origin="0.5 : -295.54281 : 1"
       inkscape:vp_z="1 : -295.37614 : 1"
       inkscape:vp_y="0 : 1000 : 0"
       inkscape:vp_x="0 : -295.37614 : 1"
       sodipodi:type="inkscape:persp3d" />
  </defs>
  <sodipodi:namedview
     id="base"
     pagecolor="#ffffff"
     bordercolor="#666666"
     borderopacity="1.0"
     inkscape:pageopacity="0.0"
     inkscape:pageshadow="2"
     inkscape:zoom="0.71503906"
     inkscape:cx="248.93745"
     inkscape:cy="107.68642"
     inkscape:document-units="px"
     inkscape:current-layer="layer1"
     showgrid="false"
     inkscape:window-width="1920"
     inkscape:window-height="1050"
     inkscape:window-x="1920"
     inkscape:window-y="0"
     inkscape:window-maximized="1"
     inkscape:showpageshadow="2"
     inkscape:pagecheckerboard="0"
     inkscape:deskcolor="#d1d1d1" />
  <metadata
     id="metadata2948">
    <rdf:RDF>
      <cc:Work
         rdf:about="">
        <dc:format>image/svg+xml</dc:format>
        <dc:type
           rdf:resource="http://purl.org/dc/dcmitype/StillImage" />
      </cc:Work>
    </rdf:RDF>
  </metadata>
  <g
     inkscape:label="Layer 1"
     inkscape:groupmode="layer"
     id="layer1"
     transform="translate(-125.54333,-684.40053)">
    <g
       id="g3328"
       transform="translate(-5595.5755,-957.59843)">
      <g
         style="font-style:normal;font-variant:normal;font-weight:900;font-stretch:normal;font-size:144px;line-height:125%;font-family:'PF BeauSans Pro';-inkscape-font-specification:'PF BeauSans Pro Heavy';text-align:start;writing-mode:lr-tb;text-anchor:start;fill:#1053a0;fill-opacity:0.998055;stroke:none"
         id="text3301">
        <path
           d="m 5791.1045,1840.5788 c 0.096,0.672 0.096,1.248 0,1.728 -1e-4,0.384 -0.5761,0.768 -1.728,1.152 -4.0321,1.248 -7.9681,2.016 -11.808,2.304 -3.84,0.384 -7.392,0.576 -10.656,0.576 -8.736,0 -15.072,-1.872 -19.008,-5.616 -3.84,-3.744 -5.76,-8.928 -5.76,-15.552 v -37.44 h -10.08 c -1.152,0 -1.872,-0.288 -2.16,-0.864 -0.288,-0.672 -0.432,-1.392 -0.432,-2.16 v -10.224 c 0,-0.96 0.096,-1.584 0.288,-1.872 0.288,-0.384 1.008,-0.72 2.16,-1.008 l 10.224,-2.592 v -13.248 c 0,-1.3439 0.288,-2.2559 0.864,-2.736 0.576,-0.5759 1.392,-1.0079 2.448,-1.296 l 19.152,-5.904 c 1.056,-0.2879 1.872,-0.1919 2.448,0.288 0.672,0.3841 1.008,1.2001 1.008,2.448 v 20.592 h 16.128 c 1.2479,0 1.9199,0.192 2.016,0.576 0.1919,0.384 0.2879,1.056 0.288,2.016 v 12.96 c -1e-4,1.056 -0.048,1.824 -0.144,2.304 -0.096,0.48 -0.8161,0.72 -2.16,0.72 h -16.128 v 30.384 c 0,2.4 0.624,4.032 1.872,4.896 1.248,0.864 3.216,1.296 5.904,1.296 1.5359,0 3.4079,-0.096 5.616,-0.288 2.3039,-0.288 4.0319,-0.528 5.184,-0.72 0.7679,-0.096 1.2959,-0.048 1.584,0.144 0.3839,0.192 0.6239,0.672 0.72,1.44 l 2.16,15.696 v 0"
           id="path4207" />
        <path
           d="m 5828.6997,1842.0188 c 0,1.152 -0.192,1.92 -0.576,2.304 -0.288,0.288 -1.248,0.432 -2.88,0.432 h -19.008 c -2.208,0 -3.312,-0.912 -3.312,-2.736 v -60.912 c 0,-3.648 0.624,-6.48 1.872,-8.496 1.248,-2.112 4.032,-3.552 8.352,-4.32 1.824,-0.288 3.6,-0.48 5.328,-0.576 1.824,-0.096 3.84,-0.144 6.048,-0.144 3.36,0 6.816,0.24 10.368,0.72 3.648,0.384 7.2,1.008 10.656,1.872 3.456,0.864 6.768,1.968 9.936,3.312 3.168,1.248 6.048,2.736 8.64,4.464 1.056,0.768 1.536,1.44 1.44,2.016 -0.096,0.576 -0.336,1.2 -0.72,1.872 l -8.352,14.976 c -0.672,1.152 -1.296,1.728 -1.872,1.728 -0.576,-0.096 -1.536,-0.576 -2.88,-1.44 -2.688,-1.632 -5.472,-3.072 -8.352,-4.32 -2.88,-1.248 -6.192,-1.968 -9.936,-2.16 -0.768,0 -1.536,0 -2.304,0 -0.768,0 -1.584,0.048 -2.448,0.144 v 51.264 0"
           id="path4209" />
        <path
           d="m 5941.6025,1834.0988 c -1e-4,1.344 -0.1441,2.544 -0.432,3.6 -0.2881,0.96 -1.3441,1.92 -3.168,2.88 -2.2081,1.056 -4.6561,1.968 -7.344,2.736 -2.5921,0.768 -5.2801,1.392 -8.064,1.872 -2.7841,0.48 -5.6161,0.816 -8.496,1.008 -2.784,0.192 -5.424,0.288 -7.92,0.288 -6.624,0 -12.192,-0.576 -16.704,-1.728 -4.512,-1.248 -8.16,-2.928 -10.944,-5.04 -2.688,-2.208 -4.608,-4.8 -5.76,-7.776 -1.152,-2.976 -1.728,-6.192 -1.728,-9.648 0,-8.448 2.64,-14.832 7.92,-19.152 5.28,-4.416 12.336,-6.624 21.168,-6.624 h 15.696 v -2.016 c -1e-4,-0.672 -0.096,-1.44 -0.288,-2.304 -0.1921,-0.864 -0.6721,-1.68 -1.44,-2.448 -0.672,-0.768 -1.68,-1.392 -3.024,-1.872 -1.248,-0.48 -2.928,-0.72 -5.04,-0.72 -1.344,0 -2.88,0.096 -4.608,0.288 -1.728,0.096 -3.552,0.24 -5.472,0.432 -1.92,0.192 -3.84,0.432 -5.76,0.72 -1.824,0.288 -3.504,0.624 -5.04,1.008 -1.344,0.384 -2.256,0.384 -2.736,0 -0.48,-0.384 -0.816,-1.104 -1.008,-2.16 l -2.736,-12.384 c -0.288,-1.344 -0.288,-2.208 0,-2.592 0.288,-0.48 0.816,-0.864 1.584,-1.152 4.608,-1.536 9.264,-2.64 13.968,-3.312 4.704,-0.768 9.792,-1.152 15.264,-1.152 10.9439,0 19.0079,2.256 24.192,6.768 5.2799,4.416 7.9199,11.232 7.92,20.448 v 40.032 m -25.92,-22.32 h -8.496 c -1.056,0 -2.112,0.096 -3.168,0.288 -1.056,0.192 -2.016,0.576 -2.88,1.152 -0.864,0.48 -1.584,1.248 -2.16,2.304 -0.576,0.96 -0.864,2.256 -0.864,3.888 0,2.304 0.816,3.984 2.448,5.04 1.728,1.056 3.984,1.584 6.768,1.584 0.672,0 1.92,-0.096 3.744,-0.288 1.92,-0.192 3.456,-0.576 4.608,-1.152 v -12.816"
           id="path4211" />
        <path
           d="m 6020.1702,1822.5788 c 0,7.872 -2.784,13.824 -8.352,17.856 -5.472,3.936 -13.296,5.904 -23.472,5.904 -5.28,0 -10.8,-0.624 -16.56,-1.872 -5.76,-1.248 -10.8,-3.264 -15.12,-6.048 -0.768,-0.48 -1.248,-1.008 -1.44,-1.584 -0.096,-0.672 0.096,-1.536 0.576,-2.592 l 5.184,-12.24 c 0.48,-1.248 1.008,-1.968 1.584,-2.16 0.576,-0.192 1.44,-0.048 2.592,0.432 1.248,0.48 2.784,1.008 4.608,1.584 1.92,0.576 3.888,1.152 5.904,1.728 2.112,0.48 4.128,0.912 6.048,1.296 2.016,0.384 3.744,0.576 5.184,0.576 2.688,0 4.368,-0.384 5.04,-1.152 0.672,-0.864 1.008,-1.776 1.008,-2.736 0,-0.96 -0.672,-1.92 -2.016,-2.88 -1.248,-0.96 -3.936,-2.256 -8.064,-3.888 -3.744,-1.536 -7.152,-3.072 -10.224,-4.608 -2.976,-1.536 -5.52,-3.216 -7.632,-5.04 -2.016,-1.92 -3.6,-4.032 -4.752,-6.336 -1.152,-2.304 -1.728,-4.944 -1.728,-7.92 0,-3.168 0.576,-6.192 1.728,-9.072 1.152,-2.976 2.88,-5.52 5.184,-7.632 2.4,-2.208 5.472,-3.936 9.216,-5.184 3.744,-1.344 8.208,-2.016 13.392,-2.016 4.704,0 9.552,0.528 14.544,1.584 5.088,0.96 9.312,2.256 12.6721,3.888 1.3439,0.672 2.0159,1.248 2.0159,1.728 0.096,0.48 -0.144,1.488 -0.72,3.024 l -3.888,10.368 c -0.48,1.344 -1.008,2.16 -1.584,2.448 -0.48,0.192 -1.392,0.096 -2.736,-0.288 -3.36,-0.864 -6.624,-1.632 -9.792,-2.304 -3.072,-0.672 -6.144,-1.008 -9.216,-1.008 -1.632,0 -2.736,0.432 -3.3119,1.296 -0.4801,0.864 -0.7201,1.536 -0.7201,2.016 0,1.248 0.624,2.304 1.872,3.168 1.248,0.864 3.552,1.92 6.912,3.168 3.84,1.44 7.344,2.928 10.5121,4.464 3.2639,1.536 6.0479,3.312 8.3519,5.328 2.304,1.92 4.08,4.224 5.328,6.912 1.248,2.688 1.872,5.952 1.872,9.792"
           id="path4213" />
        <path
           d="m 6068.3562,1787.8748 c -0.864,0 -2.064,0.048 -3.5999,0.144 -1.5361,0.096 -2.9281,0.24 -4.1761,0.432 v 53.424 c 0,1.152 -0.192,1.92 -0.576,2.304 -0.288,0.384 -1.248,0.576 -2.88,0.576 h -19.152 c -2.208,0 -3.312,-0.96 -3.312,-2.88 v -61.776 c 0,-3.072 0.48,-5.52 1.4401,-7.344 0.9599,-1.92 3.1199,-3.264 6.4799,-4.032 0.96,-0.192 2.4,-0.384 4.32,-0.576 1.92,-0.288 3.984,-0.48 6.192,-0.576 2.304,-0.192 4.608,-0.336 6.912,-0.432 2.304,-0.096 4.272,-0.144 5.9041,-0.144 7.0079,0 13.1519,0.672 18.4319,2.016 5.28,1.248 9.648,3.408 13.104,6.48 3.552,2.976 6.192,6.912 7.92,11.808 1.728,4.8 2.592,10.704 2.592,17.712 v 36.864 c 0,1.152 -0.192,1.92 -0.576,2.304 -0.288,0.384 -1.248,0.576 -2.88,0.576 h -19.4399 c -2.2081,0 -3.3121,-0.96 -3.3121,-2.88 v -39.312 c 0,-4.896 -0.96,-8.544 -2.8799,-10.944 -1.8241,-2.496 -5.3281,-3.744 -10.5121,-3.744"
           id="path4215" />
        <path
           d="m 6200.0622,1806.5948 c 0,12.48 -3.12,22.224 -9.36,29.232 -6.24,7.008 -15.888,10.512 -28.944,10.512 -6.816,0 -12.624,-0.912 -17.424,-2.736 -4.8,-1.92 -8.736,-4.56 -11.808,-7.92 -2.976,-3.456 -5.184,-7.632 -6.624,-12.528 -1.344,-4.896 -2.016,-10.368 -2.016,-16.416 0,-6.048 0.816,-11.52 2.448,-16.416 1.632,-4.896 4.032,-9.072 7.2,-12.528 3.168,-3.456 7.104,-6.096 11.808,-7.92 4.8,-1.92 10.32,-2.88 16.56,-2.88 12.672,0 22.176,3.552 28.512,10.656 6.432,7.008 9.648,16.656 9.648,28.944 m -27.36,0.288 c 0,-11.808 -3.6,-17.712 -10.8,-17.712 -7.2,0 -10.8,5.76 -10.8,17.28 0,6.336 0.912,10.896 2.736,13.68 1.824,2.688 4.512,4.032 8.064,4.032 3.552,0 6.24,-1.488 8.0641,-4.464 1.8239,-3.072 2.7359,-7.344 2.7359,-12.816"
           id="path4217" />
      </g>
      <g
         style="font-style:normal;font-variant:normal;font-weight:200;font-stretch:normal;font-size:21.2441px;line-height:125%;font-family:'PF BeauSans Pro';-inkscape-font-specification:'PF BeauSans Pro Ultra-Light';text-align:start;writing-mode:lr-tb;text-anchor:start;fill:#6699cc;fill-opacity:1;stroke:none"
         id="text3305">
        <path
           d="m 5864.8349,1745.071 c 0,0.8498 -0.099,1.6358 -0.2974,2.3581 -0.1983,0.7223 -0.5028,1.3454 -0.9135,1.8695 -0.3966,0.524 -0.9064,0.9347 -1.5296,1.2321 -0.609,0.2974 -1.3242,0.4462 -2.1456,0.4462 -0.4674,0 -0.9773,-0.042 -1.5296,-0.1275 -0.5524,-0.071 -1.1047,-0.2054 -1.657,-0.4037 v 4.4613 c 0,0.1133 -0.064,0.17 -0.1912,0.17 h -0.6161 c -0.1275,0 -0.1912,-0.057 -0.1912,-0.17 v -14.5735 c 0,-0.1416 0.057,-0.2336 0.1699,-0.2761 0.6657,-0.2691 1.3597,-0.4532 2.082,-0.5524 0.7223,-0.099 1.4162,-0.1487 2.0819,-0.1487 1.6145,0 2.8042,0.5099 3.569,1.5296 0.7789,1.0197 1.1684,2.4147 1.1684,4.1851 m -1.0622,0 c 0,-0.9348 -0.099,-1.7137 -0.2974,-2.3369 -0.1841,-0.6231 -0.4532,-1.1188 -0.8073,-1.4871 -0.3399,-0.3682 -0.7435,-0.6302 -1.2109,-0.786 -0.4674,-0.1558 -0.9772,-0.2337 -1.5296,-0.2337 -0.4107,0 -0.9206,0.043 -1.5295,0.1275 -0.5949,0.085 -1.1402,0.2266 -1.6358,0.4249 v 8.7313 c 0.6798,0.2549 1.2817,0.4178 1.8057,0.4886 0.5382,0.057 0.9631,0.085 1.2747,0.085 0.5806,0 1.1117,-0.099 1.5933,-0.2974 0.4815,-0.1983 0.8922,-0.5028 1.2321,-0.9135 0.3541,-0.4107 0.6232,-0.9277 0.8073,-1.5508 0.1983,-0.6374 0.2974,-1.388 0.2974,-2.2519"
           style="letter-spacing:33.1301"
           id="path4220" />
        <path
           d="m 5906.7624,1741.5657 c -0.085,0.085 -0.1629,0.085 -0.2337,0 -0.3682,-0.3682 -0.8214,-0.6727 -1.3596,-0.9135 -0.5382,-0.2549 -1.1684,-0.3824 -1.8907,-0.3824 -0.1983,0 -0.4532,0.01 -0.7648,0.021 -0.2974,0.014 -0.6515,0.064 -1.0622,0.1487 v 10.0909 c 0,0.1275 -0.071,0.1912 -0.2125,0.1912 h -0.5948 c -0.1275,0 -0.1912,-0.064 -0.1912,-0.1912 v -10.0272 c 0,-0.3116 0.05,-0.5382 0.1487,-0.6798 0.1133,-0.1416 0.3258,-0.2479 0.6373,-0.3187 0.3683,-0.071 0.7082,-0.1133 1.0198,-0.1274 0.3115,-0.028 0.6302,-0.043 0.9559,-0.043 0.8356,0 1.5721,0.1274 2.2094,0.3824 0.6515,0.2549 1.2393,0.6231 1.7633,1.1047 0.057,0.071 0.057,0.1345 0,0.1912 l -0.4249,0.5523"
           style="letter-spacing:33.1301"
           id="path4222" />
        <path
           d="m 5950.4093,1745.0922 c 0,1.9262 -0.4178,3.392 -1.2534,4.3976 -0.8356,0.9914 -2.0111,1.4871 -3.5265,1.4871 -1.5012,0 -2.6626,-0.4957 -3.484,-1.4871 -0.8073,-1.0056 -1.2109,-2.4502 -1.2109,-4.3338 0,-1.8978 0.4319,-3.3424 1.2959,-4.3338 0.8639,-0.9914 2.0181,-1.4871 3.4627,-1.4871 1.5155,0 2.6768,0.5028 3.4841,1.5083 0.8214,0.9914 1.2321,2.4077 1.2321,4.2488 m -0.9984,0.064 c 0,-0.6374 -0.057,-1.2534 -0.17,-1.8483 -0.1133,-0.609 -0.3187,-1.1401 -0.6161,-1.5933 -0.2832,-0.4532 -0.6656,-0.8143 -1.1471,-1.0834 -0.4816,-0.2833 -1.0906,-0.4249 -1.827,-0.4249 -0.6799,0 -1.2605,0.1345 -1.7421,0.4036 -0.4673,0.2691 -0.8497,0.6303 -1.1471,1.0835 -0.2833,0.4532 -0.4957,0.9772 -0.6374,1.572 -0.1274,0.5807 -0.1912,1.1897 -0.1912,1.827 0,0.7082 0.064,1.3667 0.1912,1.9757 0.1275,0.609 0.3399,1.1401 0.6374,1.5933 0.2974,0.4533 0.6798,0.8073 1.1471,1.0622 0.4816,0.255 1.0693,0.3824 1.7633,0.3824 0.7223,0 1.3242,-0.1487 1.8058,-0.4461 0.4815,-0.2974 0.8639,-0.6798 1.1471,-1.1472 0.2833,-0.4815 0.4816,-1.0126 0.5949,-1.5933 0.1274,-0.5948 0.1912,-1.1826 0.1912,-1.7632"
           style="letter-spacing:33.1301"
           id="path4224" />
        <path
           d="m 5989.5761,1744.7098 3.7814,5.8422 c 0.014,0.028 0.021,0.064 0.021,0.1062 0,0.043 -0.035,0.064 -0.1062,0.064 h -0.8498 c -0.085,0 -0.1416,-0.01 -0.17,-0.021 -0.028,-0.028 -0.057,-0.071 -0.085,-0.1275 l -3.1867,-5.0561 -3.2291,5.0561 c -0.057,0.099 -0.1416,0.1487 -0.2549,0.1487 h -0.7648 c -0.071,0 -0.1133,-0.021 -0.1274,-0.064 0,-0.043 0.014,-0.078 0.042,-0.1062 l 3.7603,-5.7997 -3.2079,-5.0136 c -0.014,-0.028 -0.021,-0.064 -0.021,-0.1062 0,-0.043 0.035,-0.064 0.1063,-0.064 h 0.786 c 0.1133,0 0.1983,0.05 0.2549,0.1487 l 2.698,4.2488 2.698,-4.2488 c 0.057,-0.099 0.1417,-0.1487 0.255,-0.1487 h 0.7435 c 0.085,0 0.1275,0.021 0.1275,0.064 0,0.043 -0.01,0.071 -0.021,0.085 l -3.2503,4.9923"
           style="letter-spacing:33.1301"
           id="path4226" />
        <path
           d="m 6032.3039,1739.3351 c 0.8072,0 1.5012,0.1274 2.0819,0.3824 0.5807,0.2407 1.0551,0.5806 1.4234,1.0197 0.3682,0.439 0.6373,0.9631 0.8072,1.572 0.1841,0.5949 0.2762,1.2393 0.2762,1.9333 0,0.439 -0.092,0.7293 -0.2762,0.871 -0.1841,0.1416 -0.439,0.2124 -0.7648,0.2124 h -7.2017 c 0,0.8639 0.092,1.6004 0.2762,2.2094 0.1982,0.5948 0.4673,1.0835 0.8072,1.4658 0.3541,0.3683 0.7648,0.6374 1.2322,0.8073 0.4674,0.17 0.9772,0.255 1.5296,0.255 0.4673,0 0.9205,-0.05 1.3596,-0.1488 0.439,-0.1133 0.8285,-0.262 1.1684,-0.4461 0.057,-0.028 0.1062,-0.043 0.1487,-0.043 0.042,0 0.078,0.035 0.1063,0.1063 l 0.2549,0.4886 c 0.057,0.1133 0.035,0.1912 -0.064,0.2337 -0.4533,0.269 -0.9419,0.4532 -1.4659,0.5523 -0.5099,0.099 -1.0339,0.1487 -1.5721,0.1487 -1.5012,0 -2.6838,-0.4603 -3.5477,-1.3809 -0.8498,-0.9205 -1.2747,-2.3864 -1.2747,-4.3975 0,-0.9489 0.1133,-1.7845 0.3399,-2.5068 0.2266,-0.7365 0.5453,-1.3525 0.956,-1.8482 0.4107,-0.4957 0.8993,-0.864 1.4659,-1.1047 0.5806,-0.255 1.225,-0.3824 1.9332,-0.3824 m 3.6115,5.1198 c 0,-0.5523 -0.057,-1.0834 -0.17,-1.5933 -0.1133,-0.5099 -0.3116,-0.956 -0.5948,-1.3384 -0.2833,-0.3965 -0.6586,-0.7081 -1.1259,-0.9347 -0.4674,-0.2408 -1.0481,-0.3612 -1.7421,-0.3612 -1.1188,0 -1.9828,0.3895 -2.5918,1.1684 -0.609,0.7648 -0.9489,1.7846 -1.0197,3.0592 h 7.2443"
           style="letter-spacing:33.1301"
           id="path4228" />
        <path
           d="m 6076.8301,1750.0846 c 0.5382,0 1.041,-0.064 1.5084,-0.1912 0.4815,-0.1416 0.9135,-0.3116 1.2959,-0.5099 0.1132,-0.071 0.2053,-0.042 0.2761,0.085 l 0.2125,0.4461 c 0.071,0.099 0.05,0.1842 -0.064,0.255 -0.524,0.2832 -1.0622,0.4815 -1.6145,0.5948 -0.5524,0.1275 -1.126,0.1912 -1.7208,0.1912 -3.2433,0 -4.8649,-1.8907 -4.8649,-5.6722 0,-0.9489 0.1133,-1.7916 0.3399,-2.528 0.2408,-0.7365 0.5736,-1.3596 0.9985,-1.8695 0.439,-0.5099 0.963,-0.8923 1.572,-1.1472 0.609,-0.2691 1.2959,-0.4036 2.0607,-0.4036 1.0622,0 2.0819,0.2478 3.0592,0.7435 0.099,0.071 0.1204,0.1558 0.064,0.2549 l -0.2337,0.4462 c -0.042,0.1274 -0.1345,0.1558 -0.2761,0.085 -0.3824,-0.1841 -0.7861,-0.3328 -1.211,-0.4461 -0.4248,-0.1274 -0.8993,-0.1912 -1.4233,-0.1912 -0.7082,0 -1.3172,0.1417 -1.827,0.4249 -0.4957,0.2691 -0.9064,0.6373 -1.2322,1.1047 -0.3116,0.4674 -0.5382,1.0056 -0.6798,1.6146 -0.1416,0.5948 -0.2124,1.218 -0.2124,1.8694 0,0.694 0.064,1.3384 0.1912,1.9333 0.1416,0.5948 0.3611,1.1117 0.6585,1.5508 0.3116,0.4249 0.7223,0.7577 1.2322,0.9984 0.5099,0.2408 1.1401,0.3612 1.8907,0.3612"
           style="letter-spacing:33.1301"
           id="path4230" />
        <path
           d="m 6114.5891,1740.4185 c -0.1274,0 -0.1912,-0.064 -0.1912,-0.1912 v -0.3186 c 0,-0.1275 0.064,-0.1983 0.1912,-0.2125 l 1.7208,-0.1912 0.1912,-2.1031 c 0,-0.099 0.014,-0.1629 0.042,-0.1912 0.028,-0.043 0.078,-0.078 0.1487,-0.1063 l 0.3824,-0.1274 c 0.1416,-0.057 0.2124,0 0.2124,0.1699 v 2.4219 h 2.7405 c 0.1133,0 0.17,0.064 0.17,0.1912 v 0.4673 c 0,0.1275 -0.057,0.1912 -0.17,0.1912 h -2.7405 v 7.7116 c 0,0.2833 0.021,0.5453 0.064,0.7861 0.042,0.2266 0.1274,0.4178 0.2549,0.5736 0.1274,0.1558 0.3045,0.2761 0.5311,0.3611 0.2408,0.085 0.5523,0.1275 0.9347,0.1275 0.1558,0 0.3895,-0.01 0.7011,-0.021 0.3257,-0.028 0.6444,-0.078 0.956,-0.1487 0.1274,-0.014 0.1982,0.021 0.2124,0.1062 l 0.1062,0.5099 c 0.028,0.1133 -0.01,0.1841 -0.1062,0.2124 -0.3541,0.099 -0.7294,0.1629 -1.1259,0.1912 -0.3824,0.043 -0.6657,0.064 -0.8498,0.064 -1.0339,0 -1.742,-0.2054 -2.1244,-0.6161 -0.3824,-0.4249 -0.5736,-1.0976 -0.5736,-2.0182 v -7.8391 h -1.6783"
           style="letter-spacing:33.1301"
           id="path4232" />
        <path
           d="m 6164.7719,1745.0922 c 0,1.9262 -0.4178,3.392 -1.2534,4.3976 -0.8356,0.9914 -2.0111,1.4871 -3.5265,1.4871 -1.5013,0 -2.6626,-0.4957 -3.484,-1.4871 -0.8073,-1.0056 -1.211,-2.4502 -1.2109,-4.3338 -1e-4,-1.8978 0.4319,-3.3424 1.2958,-4.3338 0.864,-0.9914 2.0182,-1.4871 3.4628,-1.4871 1.5154,0 2.6768,0.5028 3.4841,1.5083 0.8214,0.9914 1.2321,2.4077 1.2321,4.2488 m -0.9984,0.064 c -1e-4,-0.6374 -0.057,-1.2534 -0.17,-1.8483 -0.1133,-0.609 -0.3187,-1.1401 -0.6161,-1.5933 -0.2832,-0.4532 -0.6656,-0.8143 -1.1472,-1.0834 -0.4815,-0.2833 -1.0905,-0.4249 -1.827,-0.4249 -0.6798,0 -1.2604,0.1345 -1.742,0.4036 -0.4673,0.2691 -0.8497,0.6303 -1.1472,1.0835 -0.2832,0.4532 -0.4957,0.9772 -0.6373,1.572 -0.1274,0.5807 -0.1912,1.1897 -0.1912,1.827 0,0.7082 0.064,1.3667 0.1912,1.9757 0.1275,0.609 0.3399,1.1401 0.6373,1.5933 0.2975,0.4533 0.6799,0.8073 1.1472,1.0622 0.4816,0.255 1.0693,0.3824 1.7633,0.3824 0.7223,0 1.3242,-0.1487 1.8057,-0.4461 0.4816,-0.2974 0.864,-0.6798 1.1472,-1.1472 0.2833,-0.4815 0.4816,-1.0126 0.5949,-1.5933 0.1274,-0.5948 0.1911,-1.1826 0.1912,-1.7632"
           style="letter-spacing:33.1301"
           id="path4234" />
      </g>
      <g
         transform="matrix(1.9355424,0,0,1.9355424,-2667.5709,-48.843385)"
         id="g3309">
        <path
           style="font-style:normal;font-variant:normal;font-weight:900;font-stretch:normal;font-size:144px;line-height:125%;font-family:'PF BeauSans Pro';-inkscape-font-specification:'PF BeauSans Pro Heavy';text-align:start;writing-mode:lr-tb;text-anchor:start;fill:#7ca6ce;fill-opacity:1;stroke:none"
           id="path3311"
           d="m 4392.9064,926.73394 c -0.096,1.34406 -0.384,2.35206 -0.864,3.024 -0.48,0.57606 -1.536,0.86406 -3.168,0.864 h -18.288 c -1.92,6e-5 -3.024,-0.38394 -3.312,-1.152 -0.192,-0.76794 -0.096,-1.67994 0.288,-2.736 l 10.368,-34.416 c 0.288,-1.1519 0.624,-1.9679 1.008,-2.448 0.48,-0.4799 1.248,-0.7199 2.304,-0.72 h 9.792 c 2.688,10e-5 3.984,1.0561 3.888,3.168 l -2.016,34.416" />
        <path
           style="font-style:normal;font-variant:normal;font-weight:900;font-stretch:normal;font-size:144px;line-height:125%;font-family:'PF BeauSans Pro';-inkscape-font-specification:'PF BeauSans Pro Heavy';text-align:start;writing-mode:lr-tb;text-anchor:start;fill:#1053a0;fill-opacity:1;stroke:none"
           id="path3313"
           d="m 4420.7308,911.87946 c -0.384,1.15206 -0.816,1.96806 -1.296,2.448 -0.384,0.48006 -1.104,0.72006 -2.16,0.72 h -9.792 c -2.688,6e-5 -3.984,-1.05594 -3.888,-3.168 l 2.016,-34.416 c 0.096,-1.3439 0.384,-2.3039 0.864,-2.88 0.48,-0.6719 1.536,-1.0079 3.168,-1.008 h 18.288 c 1.92,10e-5 2.976,0.3841 3.168,1.152 0.288,0.7681 0.24,1.6801 -0.144,2.736 l -10.224,34.416" />
        <g
           style="font-style:normal;font-variant:normal;font-weight:900;font-stretch:normal;font-size:144px;line-height:125%;font-family:'PF BeauSans Pro';-inkscape-font-specification:'PF BeauSans Pro Heavy';text-align:start;writing-mode:lr-tb;text-anchor:start;fill:#ffbb00;fill-opacity:1;stroke:none"
           id="text3315">
          <path
             d="m 4363.4013,909.13809 c 0,3.93601 -1.44,7.24801 -4.32,9.936 -2.784,2.688 -6.24,4.032 -10.368,4.032 -2.016,0 -3.936,-0.384 -5.76,-1.152 -1.728,-0.672 -3.264,-1.63199 -4.608,-2.88 -1.344,-1.24799 -2.4,-2.68799 -3.168,-4.32 -0.768,-1.72799 -1.152,-3.59998 -1.152,-5.616 0,-1.91998 0.384,-3.74398 1.152,-5.472 0.768,-1.72798 1.824,-3.21597 3.168,-4.464 1.344,-1.24797 2.88,-2.20797 4.608,-2.88 1.824,-0.76797 3.744,-1.15197 5.76,-1.152 4.128,3e-5 7.584,1.34403 10.368,4.032 2.88,2.59202 4.32,5.90402 4.32,9.936"
             id="path4237" />
        </g>
      </g>
    </g>
  </g>
</svg>
